Proj2(SCC)/TestCases/dump.vcd
$date
	Mon Oct 27 00:09:49 2025
$end
$version
	Icarus Verilog
$end
$timescale
	1ps
$end
$scope module kadane_tb $end
$var wire 32 ! data_memory_in_v [31:0] $end
$var wire 2 " err_bits [1:0] $end
$var wire 1 # halt_f $end
$var wire 32 $ instruction_memory_v [31:0] $end
$var reg 32 % addr [31:0] $end
$var reg 1 & clk $end
$var reg 1 ' clk_en $end
$var reg 32 ( correct_value [31:0] $end
$var integer 32 ) fd [31:0] $end
$var reg 256 * line [255:0] $end
$var integer 32 + mem [31:0] $end
$var reg 1 , rst $end
$var reg 1 - seen_halt $end
$var reg 32 . test_output [31:0] $end
$var reg 32 / value [31:0] $end
$scope module topMod $end
$var wire 1 0 clk $end
$var wire 1 1 clk_en $end
$var wire 32 2 data_memory_a [31:0] $end
$var wire 32 3 data_memory_in_v [31:0] $end
$var wire 32 4 data_memory_out_v [31:0] $end
$var wire 1 5 data_memory_read $end
$var wire 1 6 data_memory_write $end
$var wire 2 7 err_bits [1:0] $end
$var wire 1 # halt_f $end
$var wire 32 8 instruction_memory_a [31:0] $end
$var wire 1 9 instruction_memory_en $end
$var wire 32 : instruction_memory_v [31:0] $end
$var wire 1 ; rst $end
$scope module scc $end
$var wire 1 < alu_Flag $end
$var wire 3 = alu_Instruct [2:0] $end
$var wire 32 > alu_Result [31:0] $end
$var wire 4 ? b_cond [3:0] $end
$var wire 1 @ branch_Flag $end
$var wire 1 A branch_Taken $end
$var wire 1 B branch_reg $end
$var wire 1 C clear_flag $end
$var wire 1 0 clk $end
$var wire 32 D data_memory_a [31:0] $end
$var wire 32 E data_memory_in_v [31:0] $end
$var wire 32 F data_memory_out_v [31:0] $end
$var wire 1 5 data_memory_read $end
$var wire 1 6 data_memory_write $end
$var wire 4 G destination_reg [3:0] $end
$var wire 32 H flag_Extended [31:0] $end
$var wire 1 I flag_Flag $end
$var wire 1 # halt_f $end
$var wire 16 J immediate [15:0] $end
$var wire 1 K immediate_Flag $end
$var wire 32 L instruction [31:0] $end
$var wire 32 M instruction_memory_v [31:0] $end
$var wire 1 N load_Flag $end
$var wire 1 9 memReadEn $end
$var wire 2 O mov_flag [1:0] $end
$var wire 4 P op1_reg [3:0] $end
$var wire 4 Q op2_reg [3:0] $end
$var wire 1 R preventCatch $end
$var wire 32 S programCounter [31:0] $end
$var wire 32 T read_data_1 [31:0] $end
$var wire 32 U read_data_2 [31:0] $end
$var wire 1 V romRegRead_flag $end
$var wire 1 W romRegWrite_flag $end
$var wire 32 X romWrite_data [31:0] $end
$var wire 32 Y rom_data_1 [31:0] $end
$var wire 32 Z rom_data_2 [31:0] $end
$var wire 32 [ rom_instruction [31:0] $end
$var wire 16 \ rom_programCounter [15:0] $end
$var wire 1 ; rst $end
$var wire 1 ] sav_flag $end
$var wire 1 ^ setCatch $end
$var wire 1 _ set_flag $end
$var wire 1 ` shift_Flag $end
$var wire 1 a store_Flag $end
$var wire 32 b write_data [31:0] $end
$var wire 1 c write_to_reg_Flag $end
$scope module registers $end
$var wire 1 0 clk $end
$var wire 32 d dbg_reg0 [31:0] $end
$var wire 32 e dbg_reg1 [31:0] $end
$var wire 32 f dbg_reg10 [31:0] $end
$var wire 32 g dbg_reg11 [31:0] $end
$var wire 32 h dbg_reg12 [31:0] $end
$var wire 32 i dbg_reg13 [31:0] $end
$var wire 32 j dbg_reg14 [31:0] $end
$var wire 32 k dbg_reg2 [31:0] $end
$var wire 32 l dbg_reg3 [31:0] $end
$var wire 32 m dbg_reg4 [31:0] $end
$var wire 32 n dbg_reg5 [31:0] $end
$var wire 32 o dbg_reg6 [31:0] $end
$var wire 32 p dbg_reg7 [31:0] $end
$var wire 32 q dbg_reg8 [31:0] $end
$var wire 32 r dbg_reg9 [31:0] $end
$var wire 2 s mov_Flag [1:0] $end
$var wire 4 t read_reg_1 [3:0] $end
$var wire 4 u read_reg_2 [3:0] $end
$var wire 32 v regData [31:0] $end
$var wire 1 W romRegWriteFlag $end
$var wire 1 ; rst $end
$var wire 32 w write_data [31:0] $end
$var wire 4 x write_reg [3:0] $end
$var wire 1 c write_to_reg_Flag $end
$var reg 32 y read_data_1 [31:0] $end
$var reg 32 z read_data_2 [31:0] $end
$var reg 32 { store_data [31:0] $end
$upscope $end
$scope module instruction_fetch $end
$var wire 1 A branchFlag $end
$var wire 1 B branch_reg $end
$var wire 1 0 clk $end
$var wire 32 | data_out1 [31:0] $end
$var wire 32 } data_out2 [31:0] $end
$var wire 4 ~ flags [3:0] $end
$var wire 1 # halt_f $end
$var wire 32 !" instruction_mem [31:0] $end
$var wire 2 "" mov_flag [1:0] $end
$var wire 4 #" op1Reg_sel [3:0] $end
$var wire 32 $" op1_data [31:0] $end
$var wire 4 %" op2Reg_sel [3:0] $end
$var wire 32 &" op2_data [31:0] $end
$var wire 1 V romRegRead_flag $end
$var wire 1 W romRegWrite_flag $end
$var wire 32 '" romWrite_data [31:0] $end
$var wire 32 (" rom_instruction [31:0] $end
$var wire 16 )" rom_programCounter [15:0] $end
$var wire 1 ; rst $end
$var wire 1 ^ setCatch $end
$var wire 32 *" splice_instruction [31:0] $end
$var wire 32 +" write_data [31:0] $end
$var wire 4 ," write_reg [3:0] $end
$var wire 1 c write_to_reg_Flag $end
$var reg 4 -" branchDefine [3:0] $end
$var reg 32 ." branchImmediate [31:0] $end
$var reg 2 /" branchOp [1:0] $end
$var reg 32 0" instruction [31:0] $end
$var reg 1 1" memReadEn $end
$var reg 1 2" preventCatch $end
$var reg 32 3" programCounter [31:0] $end
$scope module what $end
$var wire 1 A branchFlag $end
$var wire 1 0 clk $end
$var wire 32 4" data_in [31:0] $end
$var wire 32 5" dbg_reg0 [31:0] $end
$var wire 32 6" dbg_reg1 [31:0] $end
$var wire 32 7" dbg_reg2 [31:0] $end
$var wire 32 8" dbg_reg3 [31:0] $end
$var wire 32 9" dbg_reg4 [31:0] $end
$var wire 32 :" dbg_reg5 [31:0] $end
$var wire 32 ;" dbg_reg6 [31:0] $end
$var wire 32 <" dbg_reg7 [31:0] $end
$var wire 3 =" destReg_sel [2:0] $end
$var wire 1 >" imm_Flag $end
$var wire 1 ?" immediate $end
$var wire 2 @" mov_flag [1:0] $end
$var wire 3 A" op1Reg_sel [2:0] $end
$var wire 1 B" op1_reg $end
$var wire 3 C" op2Reg_sel [2:0] $end
$var wire 1 D" op2_reg $end
$var wire 32 E" orig_instruction [31:0] $end
$var wire 32 F" reg_data1 [31:0] $end
$var wire 32 G" reg_data2 [31:0] $end
$var wire 32 H" rom_instruction [31:0] $end
$var wire 1 ; rst $end
$var wire 1 ^ setCatch $end
$var wire 1 I" set_Flags $end
$var wire 32 J" write_reg [31:0] $end
$var wire 1 c write_to_reg_Flag $end
$var reg 4 K" branchDefine [3:0] $end
$var reg 32 L" branchImmediate [31:0] $end
$var reg 2 M" branchOp [1:0] $end
$var reg 32 N" data_out1 [31:0] $end
$var reg 32 O" data_out2 [31:0] $end
$var reg 32 P" instruction [31:0] $end
$var reg 7 Q" orig_opcode [6:0] $end
$var reg 1 R" romRegRead_flag $end
$var reg 1 S" romRegWrite_flag $end
$var reg 16 T" rom_programCounter [15:0] $end
$upscope $end
$upscope $end
$scope module the_decoder_forsaken_by_god $end
$var wire 4 U" b_cond [3:0] $end
$var wire 4 V" destination_reg [3:0] $end
$var wire 16 W" immediate [15:0] $end
$var wire 32 X" instruction [31:0] $end
$var wire 4 Y" op1_reg [3:0] $end
$var wire 4 Z" op2_reg [3:0] $end
$var wire 1 R preventCatch $end
$var reg 1 [" alu_Flag $end
$var reg 3 \" alu_Instruct [2:0] $end
$var reg 1 ]" branch_Flag $end
$var reg 1 ^" branch_reg $end
$var reg 1 _" clear_flag $end
$var reg 1 `" flag_Flag $end
$var reg 1 a" halt_f $end
$var reg 1 b" immediate_Flag $end
$var reg 1 c" load_Flag $end
$var reg 2 d" mov_flag [1:0] $end
$var reg 1 e" sav_flag $end
$var reg 1 f" setCatch $end
$var reg 1 g" set_flag $end
$var reg 1 h" shift_Flag $end
$var reg 1 i" store_Flag $end
$var reg 1 j" write_to_reg_Flag $end
$upscope $end
$scope module Execute $end
$var wire 32 k" aluResult [31:0] $end
$var wire 1 < alu_Flag $end
$var wire 3 l" alu_Instruct [2:0] $end
$var wire 4 m" b_cond [3:0] $end
$var wire 1 @ branch_Flag $end
$var wire 1 B branch_reg $end
$var wire 1 n" carry $end
$var wire 1 I flagFlag $end
$var wire 32 o" flagWrite [31:0] $end
$var wire 4 p" flags [3:0] $end
$var wire 16 q" immediate [15:0] $end
$var wire 1 K immediate_Flag $end
$var wire 32 r" immediate_extended [31:0] $end
$var wire 1 N load_Flag $end
$var wire 1 s" mem_operation $end
$var wire 1 t" negative $end
$var wire 32 u" op1_reg [31:0] $end
$var wire 32 v" op2_reg [31:0] $end
$var wire 1 w" overflow $end
$var wire 32 x" result [31:0] $end
$var wire 1 V romRegRead_flag $end
$var wire 32 y" rom_data_1 [31:0] $end
$var wire 32 z" rom_data_2 [31:0] $end
$var wire 1 ] sav_flag $end
$var wire 1 ` shift_Flag $end
$var wire 1 a store_Flag $end
$var wire 1 {" zero $end
$var reg 1 |" branchTaken $end
$var reg 32 }" flag_Extended [31:0] $end
$var reg 32 ~" operand1 [31:0] $end
$var reg 32 !# operand2 [31:0] $end
$var reg 32 "# shiftResult [31:0] $end
$scope module alu_epic $end
$var wire 1 < aluFlag $end
$var wire 3 ## alu_Instruction [2:0] $end
$var wire 1 I flagFlag $end
$var wire 32 $# flagWrite [31:0] $end
$var wire 32 %# operand1 [31:0] $end
$var wire 32 &# operand2 [31:0] $end
$var wire 1 ] sav_flag $end
$var reg 1 '# carry $end
$var reg 1 (# carry_temp $end
$var reg 1 )# negative $end
$var reg 1 *# negative_temp $end
$var reg 1 +# overflow $end
$var reg 1 ,# overflow_temp $end
$var reg 32 -# result [31:0] $end
$var reg 33 .# temp_result [32:0] $end
$var reg 1 /# zero $end
$var reg 1 0# zero_temp $end
$upscope $end
$upscope $end
$scope module memoryPlease $end
$var wire 32 1# alu_Result [31:0] $end
$var wire 1 N load_Flag $end
$var wire 1 a store_Flag $end
$var reg 1 2# data_memory_write $end
$var reg 1 3# memRead $end
$var reg 32 4# mem_destination [31:0] $end
$upscope $end
$scope module writeBack $end
$var wire 32 5# alu_Result [31:0] $end
$var wire 1 C clear_flag $end
$var wire 32 6# data_memory_in_v [31:0] $end
$var wire 32 7# flag_Extended [31:0] $end
$var wire 16 8# imm_in [15:0] $end
$var wire 1 K immediate_Flag $end
$var wire 1 N load_Flag $end
$var wire 2 9# mov_Flag [1:0] $end
$var wire 32 :# reg_in [31:0] $end
$var wire 1 W romRegWrite_flag $end
$var wire 1 _ set_flag $end
$var reg 32 ;# output_Data [31:0] $end
$var reg 32 <# romoutput_Data [31:0] $end
$upscope $end
$scope module rom $end
$var wire 16 =# instruction_memory_a [15:0] $end
$var wire 1 9 instruction_memory_en $end
$var wire 32 ># instruction_memory_v [31:0] $end
$var wire 1 0 mem_Clk $end
$upscope $end
$upscope $end
$scope module mem_module $end
$var wire 32 ?# data_memory_a [31:0] $end
$var wire 32 @# data_memory_out_v [31:0] $end
$var wire 1 5 data_memory_read $end
$var wire 1 6 data_memory_write $end
$var wire 1 # halt_f $end
$var wire 32 A# instruction_memory_a [31:0] $end
$var wire 1 9 instruction_memory_en $end
$var wire 1 0 mem_Clk $end
$var reg 32 B# data_memory_in_v [31:0] $end
$var integer 32 C# file [31:0] $end
$var integer 32 D# i [31:0] $end
$var reg 32 E# instruction_memory_v [31:0] $end
$var integer 32 F# j [31:0] $end
$var reg 32 G# location [31:0] $end
$upscope $end
$upscope $end
$upscope $end
$enddefinitions $end
#0
$dumpvars
bx G#
bx F#
b100100000000000000000000000 E#
bx D#
bx C#
b100100000000000000000000000 B#
b0 A#
b0 @#
b0 ?#
bx >#
b1111111111111100 =#
bx <#
b0 ;#
b0 :#
b0 9#
b0 8#
b0 7#
b100100000000000000000000000 6#
b0 5#
b0 4#
03#
02#
b0 1#
10#
0/#
b0 .#
b0 -#
0,#
0+#
0*#
0)#
1(#
0'#
b0 &#
b0 %#
b0 $#
b10 ##
bx "#
b0 !#
b0 ~"
b0 }"
0|"
0{"
b0 z"
b0 y"
b0 x"
0w"
b0 v"
b0 u"
0t"
0s"
b0 r"
b0 q"
b0 p"
b0 o"
0n"
b100 m"
b10 l"
b0 k"
1j"
0i"
0h"
0g"
0f"
0e"
b0 d"
0c"
1b"
0a"
0`"
1_"
0^"
0]"
b10 \"
0["
b0 Z"
b0 Y"
b100100000000000000000000000 X"
b0 W"
b100 V"
b100 U"
b1111111111111100 T"
0S"
0R"
bx Q"
b11001000000000000000000000000000 P"
b0 O"
b0 N"
bx M"
bx L"
bx K"
b0 J"
xI"
bx H"
bz G"
bz F"
b100100000000000000000000000 E"
0D"
b0 C"
0B"
b0 A"
b0 @"
0?"
x>"
b100 ="
b0 <"
b0 ;"
b0 :"
b0 9"
b0 8"
b0 7"
b0 6"
b0 5"
bx 4"
b0 3"
x2"
11"
b100100000000000000000000000 0"
b0 /"
b0 ."
b10 -"
b100 ,"
b0 +"
b11001000000000000000000000000000 *"
b1111111111111100 )"
bx ("
bx '"
bz &"
b0 %"
bz $"
b0 #"
b0 ""
b100100000000000000000000000 !"
b0 ~
b0 }
b0 |
b0 {
b0 z
b0 y
b100 x
b0 w
b0 v
b0 u
b0 t
b0 s
b0 r
b0 q
b0 p
b0 o
b0 n
b0 m
b0 l
b0 k
b0 j
b0 i
b0 h
b0 g
b0 f
b0 e
b0 d
1c
b0 b
0a
0`
0_
0^
0]
b1111111111111100 \
bx [
b0 Z
b0 Y
bx X
0W
0V
b0 U
b0 T
b0 S
xR
b0 Q
b0 P
b0 O
0N
b100100000000000000000000000 M
b100100000000000000000000000 L
1K
b0 J
0I
b0 H
b100 G
b0 F
b100100000000000000000000000 E
b0 D
1C
0B
0A
0@
b100 ?
b0 >
b10 =
0<
1;
b100100000000000000000000000 :
19
b0 8
bz 7
06
05
b0 4
b100100000000000000000000000 3
b0 2
11
10
bx /
bx .
0-
1,
bx +
bx *
bx )
bx (
1'
1&
bx %
b100100000000000000000000000 $
0#
bz "
b100100000000000000000000000 !
$end
#5
0&
00
#10
1&
10
#15
0&
00
#20
1&
10
#25
0&
00
#30
0,
0;
1&
10
#35
0&
00
#40
b1 B#
b1 !
b1 3
b1 E
b1 6#
b10000000000 ;#
b10000000000 b
b10000000000 w
b10000000000 +"
b10000000000 4#
b10000000000 2
b10000000000 D
b10000000000 ?#
00#
b10000000000 >
b10000000000 x"
b10000000000 1#
b10000000000 5#
b10000000000 -#
b10000000000 k"
b10000000000 .#
0(#
b1 ##
b10000000000 !#
b10000000000 &#
1["
1<
b1 \"
b1 =
b1 l"
b100 A"
b100 P
b100 t
b100 #"
b100 Y"
b10000000000 r"
b10000000000 J
b10000000000 W"
b10000000000 q"
b10000000000 8#
0_"
0C
b10000000000 ."
b1 -"
b100010100010000000010000000000 0"
b100010100010000000010000000000 L
b100010100010000000010000000000 X"
b100010100010000000010000000000 E#
b100010100010000000010000000000 $
b100010100010000000010000000000 :
b100010100010000000010000000000 M
b100010100010000000010000000000 !"
b100010100010000000010000000000 E"
02"
0R
b100 3"
b100 8
b100 S
b100 A#
1&
10
#45
0&
00
#50
b100100000000000000000000000 B#
b100100000000000000000000000 !
b100100000000000000000000000 3
b100100000000000000000000000 E
b100100000000000000000000000 6#
b0 4#
b0 2
b0 D
b0 ?#
b0 >
b0 x"
b0 1#
b0 5#
10#
1(#
b0 -#
b0 k"
b10 ##
b0 !#
b0 &#
b0 ;#
b0 b
b0 w
b0 +"
0["
0<
b10 \"
b10 =
b10 l"
b0 .#
1|"
1A
b101 ="
b0 A"
b101 ?
b101 U"
b101 m"
b101 G
b101 x
b101 ,"
b101 V"
b0 P
b0 t
b0 #"
b0 Y"
b0 r"
b0 J
b0 W"
b0 q"
b0 8#
1_"
1C
b0 ."
b10 -"
b100101000000000000000000000 0"
b100101000000000000000000000 L
b100101000000000000000000000 X"
b0 ~"
b0 %#
b100101000000000000000000000 E#
b100101000000000000000000000 $
b100101000000000000000000000 :
b100101000000000000000000000 M
b100101000000000000000000000 !"
b100101000000000000000000000 E"
b0 {
b0 4
b0 F
b0 o"
b0 $#
b0 @#
b0 y
b0 T
b0 u"
b0 :#
b1000 3"
b1000 8
b1000 S
b1000 A#
b0 v
b10000000000 m
1&
10
#55
0&
00
#60
b10001010101010 B#
b10001010101010 !
b10001010101010 3
b10001010101010 E
b10001010101010 6#
b1010 ;#
b1010 b
b1010 w
b1010 +"
b1010 4#
b1010 2
b1010 D
b1010 ?#
00#
b1010 >
b1010 x"
b1010 1#
b1010 5#
b1010 -#
b1010 k"
b1010 .#
0(#
b1 ##
b1010 !#
b1010 &#
1["
1<
b1 \"
b1 =
b1 l"
b101 A"
1B"
b101 P
b101 t
b101 #"
b101 Y"
b1010 r"
b1010 J
b1010 W"
b1010 q"
b1010 8#
0_"
0C
b1010 ."
b1 -"
b100010101010100000000000001010 0"
b100010101010100000000000001010 L
b100010101010100000000000001010 X"
b100010101010100000000000001010 E#
b100010101010100000000000001010 $
b100010101010100000000000001010 :
b100010101010100000000000001010 M
b100010101010100000000000001010 !"
b100010101010100000000000001010 E"
b1100 3"
b1100 8
b1100 S
b1100 A#
1&
10
#65
0&
00
#70
b100100000000000000000000000 B#
b100100000000000000000000000 !
b100100000000000000000000000 3
b100100000000000000000000000 E
b100100000000000000000000000 6#
b0 4#
b0 2
b0 D
b0 ?#
b0 >
b0 x"
b0 1#
b0 5#
10#
1(#
b0 -#
b0 k"
b10 ##
b0 !#
b0 &#
b0 ;#
b0 b
b0 w
b0 +"
0["
0<
b10 \"
b10 =
b10 l"
b0 .#
0|"
0A
b110 ="
b0 A"
0B"
b110 ?
b110 U"
b110 m"
b110 G
b110 x
b110 ,"
b110 V"
b0 P
b0 t
b0 #"
b0 Y"
b0 r"
b0 J
b0 W"
b0 q"
b0 8#
1_"
1C
b0 ."
b10 -"
b100110000000000000000000000 0"
b100110000000000000000000000 L
b100110000000000000000000000 X"
b0 ~"
b0 %#
b100110000000000000000000000 E#
b100110000000000000000000000 $
b100110000000000000000000000 :
b100110000000000000000000000 M
b100110000000000000000000000 !"
b100110000000000000000000000 E"
b0 {
b0 4
b0 F
b0 o"
b0 $#
b0 @#
b0 y
b0 T
b0 u"
b0 :#
b10000 3"
b10000 8
b10000 S
b10000 A#
b0 v
b1010 n
1&
10
#75
0&
00
#80
bx B#
bx !
bx 3
bx E
bx 6#
b10100000000 ;#
b10100000000 b
b10100000000 w
b10100000000 +"
b10100000000 4#
b10100000000 2
b10100000000 D
b10100000000 ?#
00#
b10100000000 >
b10100000000 x"
b10100000000 1#
b10100000000 5#
b10100000000 -#
b10100000000 k"
b10100000000 .#
0(#
b1 ##
b10100000000 !#
b10100000000 &#
1["
1<
b1 \"
b1 =
b1 l"
b110 A"
b110 P
b110 t
b110 #"
b110 Y"
b10100000000 r"
b10100000000 J
b10100000000 W"
b10100000000 q"
b10100000000 8#
0_"
0C
b10100000000 ."
b1 -"
b100010110011000000010100000000 0"
b100010110011000000010100000000 L
b100010110011000000010100000000 X"
b100010110011000000010100000000 E#
b100010110011000000010100000000 $
b100010110011000000010100000000 :
b100010110011000000010100000000 M
b100010110011000000010100000000 !"
b100010110011000000010100000000 E"
b10100 3"
b10100 8
b10100 S
b10100 A#
1&
10
#85
0&
00
#90
b1 B#
b1 !
b1 3
b1 E
b1 6#
b1 ;#
b1 b
b1 w
b1 +"
b10000000000 4#
b10000000000 2
b10000000000 D
b10000000000 ?#
b10000000000 >
b10000000000 x"
b10000000000 1#
b10000000000 5#
00#
b10000000000 -#
b10000000000 k"
1s"
13#
15
b1 ##
b0 !#
b0 &#
1c"
1N
b0 \"
b0 =
b0 l"
b10000000000 .#
b0 ="
b100 A"
b0 ?
b0 U"
b0 m"
b0 G
b0 x
b0 ,"
b0 V"
b100 P
b100 t
b100 #"
b100 Y"
b0 r"
b0 J
b0 W"
b0 q"
b0 8#
b0 ."
b0 -"
b10 /"
b10000000000010000000000000000000 0"
b10000000000010000000000000000000 L
b10000000000010000000000000000000 X"
b10000000000 ~"
b10000000000 %#
b10000000000010000000000000000000 E#
b10000000000010000000000000000000 $
b10000000000010000000000000000000 :
b10000000000010000000000000000000 M
b10000000000010000000000000000000 !"
b10000000000010000000000000000000 E"
b0 {
b0 4
b0 F
b0 o"
b0 $#
b0 @#
b10000000000 y
b10000000000 T
b10000000000 u"
b10000000000 :#
b11000 3"
b11000 8
b11000 S
b11000 A#
b0 v
b10100000000 o
1&
10
#95
0&
00
#100
b10000000000000000000000000100010 B#
b10000000000000000000000000100010 !
b10000000000000000000000000100010 3
b10000000000000000000000000100010 E
b10000000000000000000000000100010 6#
b1 4#
b1 2
b1 D
b1 ?#
b1 >
b1 x"
b1 1#
b1 5#
b1 -#
b1 k"
b1 .#
b1 ;#
b1 b
b1 w
b1 +"
0s"
03#
05
b1 ~"
b1 %#
0c"
0N
b1 \"
b1 =
b1 l"
1|"
1A
b1 ="
b0 A"
b1 y
b1 T
b1 u"
b1 :#
b1 ?
b1 U"
b1 m"
b1 G
b1 x
b1 ,"
b1 V"
b0 P
b0 t
b0 #"
b0 Y"
b1 -"
b0 /"
b100010001000000000000000000000 0"
b100010001000000000000000000000 L
b100010001000000000000000000000 X"
b100010001000000000000000000000 E#
b100010001000000000000000000000 $
b100010001000000000000000000000 :
b100010001000000000000000000000 M
b100010001000000000000000000000 !"
b100010001000000000000000000000 E"
b0 {
b0 4
b0 F
b0 o"
b0 $#
b0 @#
b1 z
b1 U
b1 v"
b0 v
b1 d
b11100 3"
b11100 8
b11100 S
b11100 A#
1&
10
#105
0&
00
#110
0|"
0A
b10 ="
b10 ?
b10 U"
b10 m"
b10 G
b10 x
b10 ,"
b10 V"
b100010010000000000000000000000 0"
b100010010000000000000000000000 L
b100010010000000000000000000000 X"
b100010010000000000000000000000 $
b100010010000000000000000000000 :
b100010010000000000000000000000 M
b100010010000000000000000000000 !"
b100010010000000000000000000000 E"
b100010010000000000000000000000 E#
b0 {
b0 4
b0 F
b0 o"
b0 $#
b0 @#
b100000 3"
b100000 8
b100000 S
b100000 A#
b0 v
b1 e
1&
10
#115
0&
00
#120
b10 B#
b10 !
b10 3
b10 E
b10 6#
b10000000100 ;#
b10000000100 b
b10000000100 w
b10000000100 +"
b10000000100 4#
b10000000100 2
b10000000100 D
b10000000100 ?#
b10000000100 >
b10000000100 x"
b10000000100 1#
b10000000100 5#
b10000000100 -#
b10000000100 k"
b10000000100 .#
b10000000000 ~"
b10000000000 %#
b100 !#
b100 &#
b100 ="
b100 A"
b10000000000 y
b10000000000 T
b10000000000 u"
b10000000000 :#
b100 ?
b100 U"
b100 m"
b100 G
b100 x
b100 ,"
b100 V"
b100 P
b100 t
b100 #"
b100 Y"
b100 r"
b100 J
b100 W"
b100 q"
b100 8#
b100 ."
b100010100010000000000000000100 0"
b100010100010000000000000000100 L
b100010100010000000000000000100 X"
b100010100010000000000000000100 $
b100010100010000000000000000100 :
b100010100010000000000000000100 M
b100010100010000000000000000100 !"
b100010100010000000000000000100 E"
b100010100010000000000000000100 E#
b10000000000 {
b10000000000 4
b10000000000 F
b10000000000 o"
b10000000000 $#
b10000000000 @#
b10000000000 v
b1 k
b100100 3"
b100100 8
b100100 S
b100100 A#
1&
10
#125
0&
00
#130
b10100000000000000000000000100010 B#
b10100000000000000000000000100010 !
b10100000000000000000000000100010 3
b10100000000000000000000000100010 E
b10100000000000000000000000100010 6#
b1001 ;#
b1001 b
b1001 w
b1001 +"
b1001 4#
b1001 2
b1001 D
b1001 ?#
b1001 >
b1001 x"
b1001 1#
b1001 5#
1(#
b1001 -#
b1001 k"
b10 ##
b1 !#
b1 &#
b10 \"
b10 =
b10 l"
b1001 .#
1|"
1A
b101 ="
b101 A"
1?"
1B"
b101 ?
b101 U"
b101 m"
b101 G
b101 x
b101 ,"
b101 V"
b101 P
b101 t
b101 #"
b101 Y"
b1 r"
b1 J
b1 W"
b1 q"
b1 8#
b1 ."
b10 -"
b100100101010100000000000000001 0"
b100100101010100000000000000001 L
b100100101010100000000000000001 X"
b1010 ~"
b1010 %#
b100100101010100000000000000001 E#
b100100101010100000000000000001 $
b100100101010100000000000000001 :
b100100101010100000000000000001 M
b100100101010100000000000000001 !"
b100100101010100000000000000001 E"
b1010 {
b1010 4
b1010 F
b1010 o"
b1010 $#
b1010 @#
b1010 y
b1010 T
b1010 u"
b1010 :#
b101000 3"
b101000 8
b101000 S
b101000 A#
b1010 v
b10000000100 m
1&
10
#135
0&
00
#140
b10100000000000000000000000100010 B#
b10100000000000000000000000100010 !
b10100000000000000000000000100010 3
b10100000000000000000000000100010 E
b10100000000000000000000000100010 6#
b0 !#
b0 &#
b1001 ;#
b1001 b
b1001 w
b1001 +"
b10 ~
b1001 4#
b1001 2
b1001 D
b1001 ?#
b10 }"
b10 H
b10 7#
b111 ="
1'#
b10 p"
1n"
b1001 >
b1001 x"
b1001 1#
b1001 5#
0?"
b111 ?
b111 U"
b111 m"
b111 G
b111 x
b111 ,"
b111 V"
b0 r"
b0 J
b0 W"
b0 q"
b0 8#
1`"
1I
b1001 -#
b1001 k"
b1001 .#
b0 ."
b1010 -"
b110100111010100000000000000000 0"
b110100111010100000000000000000 L
b110100111010100000000000000000 X"
b1001 ~"
b1001 %#
b110100111010100000000000000000 E#
b110100111010100000000000000000 $
b110100111010100000000000000000 :
b110100111010100000000000000000 M
b110100111010100000000000000000 !"
b110100111010100000000000000000 E"
1(#
b0 {
b0 4
b0 F
b0 o"
b0 $#
b0 @#
b1001 y
b1001 T
b1001 u"
b1001 :#
b0 v
b1001 n
b101100 3"
b101100 8
b101100 S
b101100 A#
1&
10
#145
0&
00
#150
b11100110000000000000000011000011 B#
b11100110000000000000000011000011 !
b11100110000000000000000011000011 3
b11100110000000000000000011000011 E
b11100110000000000000000011000011 6#
b111101 ;#
b111101 b
b111101 w
b111101 +"
b111101 4#
b111101 2
b111101 D
b111101 ?#
b111101 >
b111101 x"
b111101 1#
b111101 5#
b111101 -#
b111101 k"
b111101 .#
b1 ##
b1 ~"
b1 %#
b111100 !#
b111100 &#
0j"
0c
b1 \"
b1 =
b1 l"
0|"
0A
b0 ="
b0 A"
b1 y
b1 T
b1 u"
b1 :#
0B"
b0 ?
b0 U"
b0 m"
b0 G
b0 x
b0 ,"
b0 V"
b0 P
b0 t
b0 #"
b0 Y"
b111100 r"
b111100 J
b111100 W"
b111100 q"
b111100 8#
1]"
1@
0`"
0I
b111100 ."
b1 -"
b11 /"
b11000010000000000000000000111100 0"
b11000010000000000000000000111100 L
b11000010000000000000000000111100 X"
b11000010000000000000000000111100 E#
b11000010000000000000000000111100 $
b11000010000000000000000000111100 :
b11000010000000000000000000111100 M
b11000010000000000000000000111100 !"
b11000010000000000000000000111100 E"
0(#
b1 {
b1 4
b1 F
b1 o"
b1 $#
b1 @#
b110000 3"
b110000 8
b110000 S
b110000 A#
b1 v
b1001 p
1&
10
#155
0&
00
#160
b10 B#
b10 !
b10 3
b10 E
b10 6#
b10000000100 .#
b10 ;#
b10 b
b10 w
b10 +"
b10000000100 4#
b10000000100 2
b10000000100 D
b10000000100 ?#
b10000000100 >
b10000000100 x"
b10000000100 1#
b10000000100 5#
00#
b10000000100 -#
b10000000100 k"
1s"
13#
15
b1 ##
b10000000100 ~"
b10000000100 %#
b0 !#
b0 &#
1j"
1c
1c"
1N
b0 \"
b0 =
b0 l"
b100 A"
b10000000100 y
b10000000100 T
b10000000100 u"
b10000000100 :#
b100 P
b100 t
b100 #"
b100 Y"
b0 r"
b0 J
b0 W"
b0 q"
b0 8#
0]"
0@
b0 ."
b0 -"
b10 /"
b10000000000010000000000000000000 0"
b10000000000010000000000000000000 L
b10000000000010000000000000000000 X"
b10000000000010000000000000000000 E#
b10000000000010000000000000000000 $
b10000000000010000000000000000000 :
b10000000000010000000000000000000 M
b10000000000010000000000000000000 !"
b10000000000010000000000000000000 E"
b110100 3"
b110100 8
b110100 S
b110100 A#
1&
10
#165
0&
00
#170
b1000101000100000000100 B#
b1000101000100000000100 !
b1000101000100000000100 3
b1000101000100000000100 E
b1000101000100000000100 6#
b11 4#
b11 2
b11 D
b11 ?#
b11 >
b11 x"
b11 1#
b11 5#
b11 -#
b11 k"
b11 .#
b10 !#
b10 &#
b11 ;#
b11 b
b11 w
b11 +"
0s"
03#
05
b1 ~"
b1 %#
0b"
0K
0c"
0N
b1 \"
b1 =
b1 l"
b0 ~
1|"
1A
b0 }"
b0 H
b0 7#
b11 ="
b1 A"
b1 y
b1 T
b1 u"
b1 :#
0'#
b0 p"
0n"
1B"
b11 ?
b11 U"
b11 m"
b11 G
b11 x
b11 ,"
b11 V"
b1 P
b1 t
b1 #"
b1 Y"
1`"
1I
b1001 -"
b1 /"
b1110010011000100000000000000000 0"
b1110010011000100000000000000000 L
b1110010011000100000000000000000 X"
b1110010011000100000000000000000 E#
b1110010011000100000000000000000 $
b1110010011000100000000000000000 :
b1110010011000100000000000000000 M
b1110010011000100000000000000000 !"
b1110010011000100000000000000000 E"
b0 {
b0 4
b0 F
b0 o"
b0 $#
b0 @#
b10 z
b10 U
b10 v"
b111000 3"
b111000 8
b111000 S
b111000 A#
b0 v
b10 d
1&
10
#175
0&
00
